4 Análisis exploratorio de datos – Aprendizaje y Clasificación Automática con R
…
4.9 Accidentes por hora del día

Código

if (!is.null(atus_ml)) {
  accidentes_hora <- atus_ml |>
    count(ID_HORA_NUM, name = "n") |>
    arrange(ID_HORA_NUM)
  accidentes_hora
}

# A tibble: 24 × 2
   ID_HORA_NUM     n
         <dbl> <int>
 1           0  9143
 2           1  7400
 3           2  6594
 4           3  5694
 5           4  4880
 6           5  4986
 7           6  8034
 8           7 15159
 9           8 20666
10           9 19486
# ℹ 14 more rows
…
